{
  "rules": {
    "boxes": {
      "$box_id": {
        ".read": "auth != null && data.child('suggestors/'+auth.uid).exists()",
        "name": {
          ".validate": true,
          ".write": "auth != null && (!data.exists() || data.child('creator').child('uid').val() === auth.uid)"
        },
        "description": {
          ".validate": true,
        	".write": "auth != null && (!data.exists() || data.child('creator').child('uid').val() === auth.uid)"
        },
        "suggestions": {
          ".validate": true,
					"$suggestion_id": {
            ".write": "auth != null && data.child('suggestors/'+auth.uid).exists()"
          }
        },

        "$other": { ".validate": false }
      }
    }
  }
}
